FinalProject.sim/sim_1/behav/xsim/simulate.log
Vivado Simulator 2018.3
Time resolution is 1 ps
multiplier = 000000000000000000000001, multiplicand = 000000000000000000000001, s = 000000000000000000000000000000000000000000000000001
multiplier = 000000000000000000000001, multiplicand = 000000000000000000000010, s = 000000000000000000000000000000000000000000000000010
multiplier = 000000000000000000000001, multiplicand = 000000000000000000000100, s = 000000000000000000000000000000000000000000000000100
multiplier = 000000000000000000000001, multiplicand = 000000000000000000001000, s = 000000000000000000000000000000000000000000000001000
multiplier = 000000000000000000000001, multiplicand = 000000000000000000010000, s = 000000000000000000000000000000000000000000000010000
multiplier = 000000000000000000000001, multiplicand = 000000000000000000100000, s = 000000000000000000000000000000000000000000000100000
multiplier = 000000000000000000000001, multiplicand = 000000000000000001000000, s = 000000000000000000000000000000000000000000001000000
multiplier = 000000000000000000000001, multiplicand = 000000000000000010000000, s = 000000000000000000000000000000000000000000010000000
multiplier = 000000000000000000000001, multiplicand = 000000000000000100000000, s = 000000000000000000000000000000000000000000100000000
multiplier = 000000000000000000000001, multiplicand = 000000000000001000000000, s = 000000000000000000000000000000000000000001000000000
multiplier = 000000000000000000000001, multiplicand = 000000000000010000000000, s = 000000000000000000000000000000000000000010000000000
multiplier = 000000000000000000000001, multiplicand = 000000000000100000000000, s = 000000000000000000000000000000000000000100000000000
multiplier = 000000000000000000000001, multiplicand = 000000000001000000000000, s = 000000000000000000000000000000000000001000000000000
multiplier = 000000000000000000000001, multiplicand = 000000000010000000000000, s = 000000000000000000000000000000000000010000000000000
multiplier = 000000000000000000000001, multiplicand = 000000000100000000000000, s = 000000000000000000000000000000000000100000000000000
multiplier = 000000000000000000000001, multiplicand = 000000001000000000000000, s = 000000000000000000000000000000000001000000000000000
multiplier = 000000000000000000000001, multiplicand = 000000010000000000000000, s = 000000000000000000000000000000000010000000000000000
multiplier = 000000000000000000000001, multiplicand = 000000100000000000000000, s = 000000000000000000000000000000000100000000000000000
multiplier = 000000000000000000000001, multiplicand = 000001000000000000000000, s = 000000000000000000000000000000001000000000000000000
multiplier = 000000000000000000000001, multiplicand = 000010000000000000000000, s = 000000000000000000000000000000010000000000000000000
multiplier = 000000000000000000000001, multiplicand = 000100000000000000000000, s = 000000000000000000000000000000100000000000000000000
multiplier = 000000000000000000000001, multiplicand = 001000000000000000000000, s = 000000000000000000000000000001000000000000000000000
multiplier = 000000000000000000000001, multiplicand = 010000000000000000000000, s = 000000000000000000000000000010000000000000000000000
multiplier = 000000000000000000000001, multiplicand = 100000000000000000000000, s = 111111111111111111111111111100000000000000000000000
multiplier = 000000000000000000000010, multiplicand = 000000000000000000000001, s = 000000000000000000000000000000000000000000000000010
multiplier = 000000000000000000000010, multiplicand = 000000000000000000000010, s = 000000000000000000000000000000000000000000000000100
multiplier = 000000000000000000000010, multiplicand = 000000000000000000000100, s = 000000000000000000000000000000000000000000000001000
multiplier = 000000000000000000000010, multiplicand = 000000000000000000001000, s = 000000000000000000000000000000000000000000000010000
multiplier = 000000000000000000000010, multiplicand = 000000000000000000010000, s = 000000000000000000000000000000000000000000000100000
multiplier = 000000000000000000000010, multiplicand = 000000000000000000100000, s = 000000000000000000000000000000000000000000001000000
multiplier = 000000000000000000000010, multiplicand = 000000000000000001000000, s = 000000000000000000000000000000000000000000010000000
multiplier = 000000000000000000000010, multiplicand = 000000000000000010000000, s = 000000000000000000000000000000000000000000100000000
multiplier = 000000000000000000000010, multiplicand = 000000000000000100000000, s = 000000000000000000000000000000000000000001000000000
multiplier = 000000000000000000000010, multiplicand = 000000000000001000000000, s = 000000000000000000000000000000000000000010000000000
multiplier = 000000000000000000000010, multiplicand = 000000000000010000000000, s = 000000000000000000000000000000000000000100000000000
multiplier = 000000000000000000000010, multiplicand = 000000000000100000000000, s = 000000000000000000000000000000000000001000000000000
multiplier = 000000000000000000000010, multiplicand = 000000000001000000000000, s = 000000000000000000000000000000000000010000000000000
multiplier = 000000000000000000000010, multiplicand = 000000000010000000000000, s = 000000000000000000000000000000000000100000000000000
multiplier = 000000000000000000000010, multiplicand = 000000000100000000000000, s = 000000000000000000000000000000000001000000000000000
multiplier = 000000000000000000000010, multiplicand = 000000001000000000000000, s = 000000000000000000000000000000000010000000000000000
multiplier = 000000000000000000000010, multiplicand = 000000010000000000000000, s = 000000000000000000000000000000000100000000000000000
multiplier = 000000000000000000000010, multiplicand = 000000100000000000000000, s = 000000000000000000000000000000001000000000000000000
multiplier = 000000000000000000000010, multiplicand = 000001000000000000000000, s = 000000000000000000000000000000010000000000000000000
multiplier = 000000000000000000000010, multiplicand = 000010000000000000000000, s = 000000000000000000000000000000100000000000000000000
multiplier = 000000000000000000000010, multiplicand = 000100000000000000000000, s = 000000000000000000000000000001000000000000000000000
multiplier = 000000000000000000000010, multiplicand = 001000000000000000000000, s = 000000000000000000000000000010000000000000000000000
multiplier = 000000000000000000000010, multiplicand = 010000000000000000000000, s = 000000000000000000000000000100000000000000000000000
multiplier = 000000000000000000000010, multiplicand = 100000000000000000000000, s = 111111111111111111111111111000000000000000000000000
multiplier = 000000000000000000000100, multiplicand = 000000000000000000000001, s = 000000000000000000000000000000000000000000000000100
multiplier = 000000000000000000000100, multiplicand = 000000000000000000000010, s = 000000000000000000000000000000000000000000000001000
multiplier = 000000000000000000000100, multiplicand = 000000000000000000000100, s = 000000000000000000000000000000000000000000000010000
multiplier = 000000000000000000000100, multiplicand = 000000000000000000001000, s = 000000000000000000000000000000000000000000000100000
multiplier = 000000000000000000000100, multiplicand = 000000000000000000010000, s = 000000000000000000000000000000000000000000001000000
multiplier = 000000000000000000000100, multiplicand = 000000000000000000100000, s = 000000000000000000000000000000000000000000010000000
multiplier = 000000000000000000000100, multiplicand = 000000000000000001000000, s = 000000000000000000000000000000000000000000100000000
multiplier = 000000000000000000000100, multiplicand = 000000000000000010000000, s = 000000000000000000000000000000000000000001000000000
multiplier = 000000000000000000000100, multiplicand = 000000000000000100000000, s = 000000000000000000000000000000000000000010000000000
multiplier = 000000000000000000000100, multiplicand = 000000000000001000000000, s = 000000000000000000000000000000000000000100000000000
multiplier = 000000000000000000000100, multiplicand = 000000000000010000000000, s = 000000000000000000000000000000000000001000000000000
multiplier = 000000000000000000000100, multiplicand = 000000000000100000000000, s = 000000000000000000000000000000000000010000000000000
multiplier = 000000000000000000000100, multiplicand = 000000000001000000000000, s = 000000000000000000000000000000000000100000000000000
multiplier = 000000000000000000000100, multiplicand = 000000000010000000000000, s = 000000000000000000000000000000000001000000000000000
multiplier = 000000000000000000000100, multiplicand = 000000000100000000000000, s = 000000000000000000000000000000000010000000000000000
multiplier = 000000000000000000000100, multiplicand = 000000001000000000000000, s = 000000000000000000000000000000000100000000000000000
multiplier = 000000000000000000000100, multiplicand = 000000010000000000000000, s = 000000000000000000000000000000001000000000000000000
multiplier = 000000000000000000000100, multiplicand = 000000100000000000000000, s = 000000000000000000000000000000010000000000000000000
multiplier = 000000000000000000000100, multiplicand = 000001000000000000000000, s = 000000000000000000000000000000100000000000000000000
multiplier = 000000000000000000000100, multiplicand = 000010000000000000000000, s = 000000000000000000000000000001000000000000000000000
multiplier = 000000000000000000000100, multiplicand = 000100000000000000000000, s = 000000000000000000000000000010000000000000000000000
multiplier = 000000000000000000000100, multiplicand = 001000000000000000000000, s = 000000000000000000000000000100000000000000000000000
multiplier = 000000000000000000000100, multiplicand = 010000000000000000000000, s = 000000000000000000000000001000000000000000000000000
multiplier = 000000000000000000000100, multiplicand = 100000000000000000000000, s = 111111111111111111111111110000000000000000000000000
multiplier = 000000000000000000001000, multiplicand = 000000000000000000000001, s = 000000000000000000000000000000000000000000000001000
multiplier = 000000000000000000001000, multiplicand = 000000000000000000000010, s = 000000000000000000000000000000000000000000000010000
multiplier = 000000000000000000001000, multiplicand = 000000000000000000000100, s = 000000000000000000000000000000000000000000000100000
multiplier = 000000000000000000001000, multiplicand = 000000000000000000001000, s = 000000000000000000000000000000000000000000001000000
multiplier = 000000000000000000001000, multiplicand = 000000000000000000010000, s = 000000000000000000000000000000000000000000010000000
multiplier = 000000000000000000001000, multiplicand = 000000000000000000100000, s = 000000000000000000000000000000000000000000100000000
multiplier = 000000000000000000001000, multiplicand = 000000000000000001000000, s = 000000000000000000000000000000000000000001000000000
multiplier = 000000000000000000001000, multiplicand = 000000000000000010000000, s = 000000000000000000000000000000000000000010000000000
multiplier = 000000000000000000001000, multiplicand = 000000000000000100000000, s = 000000000000000000000000000000000000000100000000000
multiplier = 000000000000000000001000, multiplicand = 000000000000001000000000, s = 000000000000000000000000000000000000001000000000000
multiplier = 000000000000000000001000, multiplicand = 000000000000010000000000, s = 000000000000000000000000000000000000010000000000000
multiplier = 000000000000000000001000, multiplicand = 000000000000100000000000, s = 000000000000000000000000000000000000100000000000000
multiplier = 000000000000000000001000, multiplicand = 000000000001000000000000, s = 000000000000000000000000000000000001000000000000000
multiplier = 000000000000000000001000, multiplicand = 000000000010000000000000, s = 000000000000000000000000000000000010000000000000000
multiplier = 000000000000000000001000, multiplicand = 000000000100000000000000, s = 000000000000000000000000000000000100000000000000000
multiplier = 000000000000000000001000, multiplicand = 000000001000000000000000, s = 000000000000000000000000000000001000000000000000000
multiplier = 000000000000000000001000, multiplicand = 000000010000000000000000, s = 000000000000000000000000000000010000000000000000000
multiplier = 000000000000000000001000, multiplicand = 000000100000000000000000, s = 000000000000000000000000000000100000000000000000000
multiplier = 000000000000000000001000, multiplicand = 000001000000000000000000, s = 000000000000000000000000000001000000000000000000000
multiplier = 000000000000000000001000, multiplicand = 000010000000000000000000, s = 000000000000000000000000000010000000000000000000000
multiplier = 000000000000000000001000, multiplicand = 000100000000000000000000, s = 000000000000000000000000000100000000000000000000000
multiplier = 000000000000000000001000, multiplicand = 001000000000000000000000, s = 000000000000000000000000001000000000000000000000000
multiplier = 000000000000000000001000, multiplicand = 010000000000000000000000, s = 000000000000000000000000010000000000000000000000000
multiplier = 000000000000000000001000, multiplicand = 100000000000000000000000, s = 111111111111111111111111100000000000000000000000000
multiplier = 000000000000000000010000, multiplicand = 000000000000000000000001, s = 000000000000000000000000000000000000000000000010000
multiplier = 000000000000000000010000, multiplicand = 000000000000000000000010, s = 000000000000000000000000000000000000000000000100000
multiplier = 000000000000000000010000, multiplicand = 000000000000000000000100, s = 000000000000000000000000000000000000000000001000000
multiplier = 000000000000000000010000, multiplicand = 000000000000000000001000, s = 000000000000000000000000000000000000000000010000000
multiplier = 000000000000000000010000, multiplicand = 000000000000000000010000, s = 000000000000000000000000000000000000000000100000000
multiplier = 000000000000000000010000, multiplicand = 000000000000000000100000, s = 000000000000000000000000000000000000000001000000000
multiplier = 000000000000000000010000, multiplicand = 000000000000000001000000, s = 000000000000000000000000000000000000000010000000000
multiplier = 000000000000000000010000, multiplicand = 000000000000000010000000, s = 000000000000000000000000000000000000000100000000000
multiplier = 000000000000000000010000, multiplicand = 000000000000000100000000, s = 000000000000000000000000000000000000001000000000000
multiplier = 000000000000000000010000, multiplicand = 000000000000001000000000, s = 000000000000000000000000000000000000010000000000000
multiplier = 000000000000000000010000, multiplicand = 000000000000010000000000, s = 000000000000000000000000000000000000100000000000000
multiplier = 000000000000000000010000, multiplicand = 000000000000100000000000, s = 000000000000000000000000000000000001000000000000000
multiplier = 000000000000000000010000, multiplicand = 000000000001000000000000, s = 000000000000000000000000000000000010000000000000000
multiplier = 000000000000000000010000, multiplicand = 000000000010000000000000, s = 000000000000000000000000000000000100000000000000000
multiplier = 000000000000000000010000, multiplicand = 000000000100000000000000, s = 000000000000000000000000000000001000000000000000000
multiplier = 000000000000000000010000, multiplicand = 000000001000000000000000, s = 000000000000000000000000000000010000000000000000000
multiplier = 000000000000000000010000, multiplicand = 000000010000000000000000, s = 000000000000000000000000000000100000000000000000000
multiplier = 000000000000000000010000, multiplicand = 000000100000000000000000, s = 000000000000000000000000000001000000000000000000000
multiplier = 000000000000000000010000, multiplicand = 000001000000000000000000, s = 000000000000000000000000000010000000000000000000000
multiplier = 000000000000000000010000, multiplicand = 000010000000000000000000, s = 000000000000000000000000000100000000000000000000000
multiplier = 000000000000000000010000, multiplicand = 000100000000000000000000, s = 000000000000000000000000001000000000000000000000000
multiplier = 000000000000000000010000, multiplicand = 001000000000000000000000, s = 000000000000000000000000010000000000000000000000000
multiplier = 000000000000000000010000, multiplicand = 010000000000000000000000, s = 000000000000000000000000100000000000000000000000000
multiplier = 000000000000000000010000, multiplicand = 100000000000000000000000, s = 111111111111111111111111000000000000000000000000000
multiplier = 000000000000000000100000, multiplicand = 000000000000000000000001, s = 000000000000000000000000000000000000000000000100000
multiplier = 000000000000000000100000, multiplicand = 000000000000000000000010, s = 000000000000000000000000000000000000000000001000000
multiplier = 000000000000000000100000, multiplicand = 000000000000000000000100, s = 000000000000000000000000000000000000000000010000000
multiplier = 000000000000000000100000, multiplicand = 000000000000000000001000, s = 000000000000000000000000000000000000000000100000000
multiplier = 000000000000000000100000, multiplicand = 000000000000000000010000, s = 000000000000000000000000000000000000000001000000000
multiplier = 000000000000000000100000, multiplicand = 000000000000000000100000, s = 000000000000000000000000000000000000000010000000000
multiplier = 000000000000000000100000, multiplicand = 000000000000000001000000, s = 000000000000000000000000000000000000000100000000000
multiplier = 000000000000000000100000, multiplicand = 000000000000000010000000, s = 000000000000000000000000000000000000001000000000000
multiplier = 000000000000000000100000, multiplicand = 000000000000000100000000, s = 000000000000000000000000000000000000010000000000000
multiplier = 000000000000000000100000, multiplicand = 000000000000001000000000, s = 000000000000000000000000000000000000100000000000000
multiplier = 000000000000000000100000, multiplicand = 000000000000010000000000, s = 000000000000000000000000000000000001000000000000000
multiplier = 000000000000000000100000, multiplicand = 000000000000100000000000, s = 000000000000000000000000000000000010000000000000000
multiplier = 000000000000000000100000, multiplicand = 000000000001000000000000, s = 000000000000000000000000000000000100000000000000000
multiplier = 000000000000000000100000, multiplicand = 000000000010000000000000, s = 000000000000000000000000000000001000000000000000000
multiplier = 000000000000000000100000, multiplicand = 000000000100000000000000, s = 000000000000000000000000000000010000000000000000000
multiplier = 000000000000000000100000, multiplicand = 000000001000000000000000, s = 000000000000000000000000000000100000000000000000000
multiplier = 000000000000000000100000, multiplicand = 000000010000000000000000, s = 000000000000000000000000000001000000000000000000000
multiplier = 000000000000000000100000, multiplicand = 000000100000000000000000, s = 000000000000000000000000000010000000000000000000000
multiplier = 000000000000000000100000, multiplicand = 000001000000000000000000, s = 000000000000000000000000000100000000000000000000000
multiplier = 000000000000000000100000, multiplicand = 000010000000000000000000, s = 000000000000000000000000001000000000000000000000000
multiplier = 000000000000000000100000, multiplicand = 000100000000000000000000, s = 000000000000000000000000010000000000000000000000000
multiplier = 000000000000000000100000, multiplicand = 001000000000000000000000, s = 000000000000000000000000100000000000000000000000000
multiplier = 000000000000000000100000, multiplicand = 010000000000000000000000, s = 000000000000000000000001000000000000000000000000000
multiplier = 000000000000000000100000, multiplicand = 100000000000000000000000, s = 111111111111111111111110000000000000000000000000000
multiplier = 000000000000000001000000, multiplicand = 000000000000000000000001, s = 000000000000000000000000000000000000000000001000000
multiplier = 000000000000000001000000, multiplicand = 000000000000000000000010, s = 000000000000000000000000000000000000000000010000000
multiplier = 000000000000000001000000, multiplicand = 000000000000000000000100, s = 000000000000000000000000000000000000000000100000000
multiplier = 000000000000000001000000, multiplicand = 000000000000000000001000, s = 000000000000000000000000000000000000000001000000000
multiplier = 000000000000000001000000, multiplicand = 000000000000000000010000, s = 000000000000000000000000000000000000000010000000000
multiplier = 000000000000000001000000, multiplicand = 000000000000000000100000, s = 000000000000000000000000000000000000000100000000000
multiplier = 000000000000000001000000, multiplicand = 000000000000000001000000, s = 000000000000000000000000000000000000001000000000000
multiplier = 000000000000000001000000, multiplicand = 000000000000000010000000, s = 000000000000000000000000000000000000010000000000000
multiplier = 000000000000000001000000, multiplicand = 000000000000000100000000, s = 000000000000000000000000000000000000100000000000000
multiplier = 000000000000000001000000, multiplicand = 000000000000001000000000, s = 000000000000000000000000000000000001000000000000000
multiplier = 000000000000000001000000, multiplicand = 000000000000010000000000, s = 000000000000000000000000000000000010000000000000000
multiplier = 000000000000000001000000, multiplicand = 000000000000100000000000, s = 000000000000000000000000000000000100000000000000000
multiplier = 000000000000000001000000, multiplicand = 000000000001000000000000, s = 000000000000000000000000000000001000000000000000000
multiplier = 000000000000000001000000, multiplicand = 000000000010000000000000, s = 000000000000000000000000000000010000000000000000000
multiplier = 000000000000000001000000, multiplicand = 000000000100000000000000, s = 000000000000000000000000000000100000000000000000000
multiplier = 000000000000000001000000, multiplicand = 000000001000000000000000, s = 000000000000000000000000000001000000000000000000000
multiplier = 000000000000000001000000, multiplicand = 000000010000000000000000, s = 000000000000000000000000000010000000000000000000000
multiplier = 000000000000000001000000, multiplicand = 000000100000000000000000, s = 000000000000000000000000000100000000000000000000000
multiplier = 000000000000000001000000, multiplicand = 000001000000000000000000, s = 000000000000000000000000001000000000000000000000000
multiplier = 000000000000000001000000, multiplicand = 000010000000000000000000, s = 000000000000000000000000010000000000000000000000000
multiplier = 000000000000000001000000, multiplicand = 000100000000000000000000, s = 000000000000000000000000100000000000000000000000000
multiplier = 000000000000000001000000, multiplicand = 001000000000000000000000, s = 000000000000000000000001000000000000000000000000000
multiplier = 000000000000000001000000, multiplicand = 010000000000000000000000, s = 000000000000000000000010000000000000000000000000000
multiplier = 000000000000000001000000, multiplicand = 100000000000000000000000, s = 111111111111111111111100000000000000000000000000000
multiplier = 000000000000000010000000, multiplicand = 000000000000000000000001, s = 000000000000000000000000000000000000000000010000000
multiplier = 000000000000000010000000, multiplicand = 000000000000000000000010, s = 000000000000000000000000000000000000000000100000000
multiplier = 000000000000000010000000, multiplicand = 000000000000000000000100, s = 000000000000000000000000000000000000000001000000000
multiplier = 000000000000000010000000, multiplicand = 000000000000000000001000, s = 000000000000000000000000000000000000000010000000000
multiplier = 000000000000000010000000, multiplicand = 000000000000000000010000, s = 000000000000000000000000000000000000000100000000000
multiplier = 000000000000000010000000, multiplicand = 000000000000000000100000, s = 000000000000000000000000000000000000001000000000000
multiplier = 000000000000000010000000, multiplicand = 000000000000000001000000, s = 000000000000000000000000000000000000010000000000000
multiplier = 000000000000000010000000, multiplicand = 000000000000000010000000, s = 000000000000000000000000000000000000100000000000000
multiplier = 000000000000000010000000, multiplicand = 000000000000000100000000, s = 000000000000000000000000000000000001000000000000000
multiplier = 000000000000000010000000, multiplicand = 000000000000001000000000, s = 000000000000000000000000000000000010000000000000000
multiplier = 000000000000000010000000, multiplicand = 000000000000010000000000, s = 000000000000000000000000000000000100000000000000000
multiplier = 000000000000000010000000, multiplicand = 000000000000100000000000, s = 000000000000000000000000000000001000000000000000000
multiplier = 000000000000000010000000, multiplicand = 000000000001000000000000, s = 000000000000000000000000000000010000000000000000000
multiplier = 000000000000000010000000, multiplicand = 000000000010000000000000, s = 000000000000000000000000000000100000000000000000000
multiplier = 000000000000000010000000, multiplicand = 000000000100000000000000, s = 000000000000000000000000000001000000000000000000000
multiplier = 000000000000000010000000, multiplicand = 000000001000000000000000, s = 000000000000000000000000000010000000000000000000000
multiplier = 000000000000000010000000, multiplicand = 000000010000000000000000, s = 000000000000000000000000000100000000000000000000000
multiplier = 000000000000000010000000, multiplicand = 000000100000000000000000, s = 000000000000000000000000001000000000000000000000000
multiplier = 000000000000000010000000, multiplicand = 000001000000000000000000, s = 000000000000000000000000010000000000000000000000000
multiplier = 000000000000000010000000, multiplicand = 000010000000000000000000, s = 000000000000000000000000100000000000000000000000000
multiplier = 000000000000000010000000, multiplicand = 000100000000000000000000, s = 000000000000000000000001000000000000000000000000000
multiplier = 000000000000000010000000, multiplicand = 001000000000000000000000, s = 000000000000000000000010000000000000000000000000000
multiplier = 000000000000000010000000, multiplicand = 010000000000000000000000, s = 000000000000000000000100000000000000000000000000000
multiplier = 000000000000000010000000, multiplicand = 100000000000000000000000, s = 111111111111111111111000000000000000000000000000000
multiplier = 000000000000000100000000, multiplicand = 000000000000000000000001, s = 000000000000000000000000000000000000000000100000000
multiplier = 000000000000000100000000, multiplicand = 000000000000000000000010, s = 000000000000000000000000000000000000000001000000000
multiplier = 000000000000000100000000, multiplicand = 000000000000000000000100, s = 000000000000000000000000000000000000000010000000000
multiplier = 000000000000000100000000, multiplicand = 000000000000000000001000, s = 000000000000000000000000000000000000000100000000000
multiplier = 000000000000000100000000, multiplicand = 000000000000000000010000, s = 000000000000000000000000000000000000001000000000000
multiplier = 000000000000000100000000, multiplicand = 000000000000000000100000, s = 000000000000000000000000000000000000010000000000000
multiplier = 000000000000000100000000, multiplicand = 000000000000000001000000, s = 000000000000000000000000000000000000100000000000000
multiplier = 000000000000000100000000, multiplicand = 000000000000000010000000, s = 000000000000000000000000000000000001000000000000000
multiplier = 000000000000000100000000, multiplicand = 000000000000000100000000, s = 000000000000000000000000000000000010000000000000000
multiplier = 000000000000000100000000, multiplicand = 000000000000001000000000, s = 000000000000000000000000000000000100000000000000000
multiplier = 000000000000000100000000, multiplicand = 000000000000010000000000, s = 000000000000000000000000000000001000000000000000000
multiplier = 000000000000000100000000, multiplicand = 000000000000100000000000, s = 000000000000000000000000000000010000000000000000000
multiplier = 000000000000000100000000, multiplicand = 000000000001000000000000, s = 000000000000000000000000000000100000000000000000000
multiplier = 000000000000000100000000, multiplicand = 000000000010000000000000, s = 000000000000000000000000000001000000000000000000000
multiplier = 000000000000000100000000, multiplicand = 000000000100000000000000, s = 000000000000000000000000000010000000000000000000000
multiplier = 000000000000000100000000, multiplicand = 000000001000000000000000, s = 000000000000000000000000000100000000000000000000000
multiplier = 000000000000000100000000, multiplicand = 000000010000000000000000, s = 000000000000000000000000001000000000000000000000000
multiplier = 000000000000000100000000, multiplicand = 000000100000000000000000, s = 000000000000000000000000010000000000000000000000000
multiplier = 000000000000000100000000, multiplicand = 000001000000000000000000, s = 000000000000000000000000100000000000000000000000000
multiplier = 000000000000000100000000, multiplicand = 000010000000000000000000, s = 000000000000000000000001000000000000000000000000000
multiplier = 000000000000000100000000, multiplicand = 000100000000000000000000, s = 000000000000000000000010000000000000000000000000000
multiplier = 000000000000000100000000, multiplicand = 001000000000000000000000, s = 000000000000000000000100000000000000000000000000000
multiplier = 000000000000000100000000, multiplicand = 010000000000000000000000, s = 000000000000000000001000000000000000000000000000000
multiplier = 000000000000000100000000, multiplicand = 100000000000000000000000, s = 111111111111111111110000000000000000000000000000000
multiplier = 000000000000001000000000, multiplicand = 000000000000000000000001, s = 000000000000000000000000000000000000000001000000000
multiplier = 000000000000001000000000, multiplicand = 000000000000000000000010, s = 000000000000000000000000000000000000000010000000000
multiplier = 000000000000001000000000, multiplicand = 000000000000000000000100, s = 000000000000000000000000000000000000000100000000000
multiplier = 000000000000001000000000, multiplicand = 000000000000000000001000, s = 000000000000000000000000000000000000001000000000000
multiplier = 000000000000001000000000, multiplicand = 000000000000000000010000, s = 000000000000000000000000000000000000010000000000000
multiplier = 000000000000001000000000, multiplicand = 000000000000000000100000, s = 000000000000000000000000000000000000100000000000000
multiplier = 000000000000001000000000, multiplicand = 000000000000000001000000, s = 000000000000000000000000000000000001000000000000000
multiplier = 000000000000001000000000, multiplicand = 000000000000000010000000, s = 000000000000000000000000000000000010000000000000000
multiplier = 000000000000001000000000, multiplicand = 000000000000000100000000, s = 000000000000000000000000000000000100000000000000000
multiplier = 000000000000001000000000, multiplicand = 000000000000001000000000, s = 000000000000000000000000000000001000000000000000000
multiplier = 000000000000001000000000, multiplicand = 000000000000010000000000, s = 000000000000000000000000000000010000000000000000000
multiplier = 000000000000001000000000, multiplicand = 000000000000100000000000, s = 000000000000000000000000000000100000000000000000000
multiplier = 000000000000001000000000, multiplicand = 000000000001000000000000, s = 000000000000000000000000000001000000000000000000000
multiplier = 000000000000001000000000, multiplicand = 000000000010000000000000, s = 000000000000000000000000000010000000000000000000000
multiplier = 000000000000001000000000, multiplicand = 000000000100000000000000, s = 000000000000000000000000000100000000000000000000000
multiplier = 000000000000001000000000, multiplicand = 000000001000000000000000, s = 000000000000000000000000001000000000000000000000000
multiplier = 000000000000001000000000, multiplicand = 000000010000000000000000, s = 000000000000000000000000010000000000000000000000000
multiplier = 000000000000001000000000, multiplicand = 000000100000000000000000, s = 000000000000000000000000100000000000000000000000000
multiplier = 000000000000001000000000, multiplicand = 000001000000000000000000, s = 000000000000000000000001000000000000000000000000000
multiplier = 000000000000001000000000, multiplicand = 000010000000000000000000, s = 000000000000000000000010000000000000000000000000000
multiplier = 000000000000001000000000, multiplicand = 000100000000000000000000, s = 000000000000000000000100000000000000000000000000000
multiplier = 000000000000001000000000, multiplicand = 001000000000000000000000, s = 000000000000000000001000000000000000000000000000000
multiplier = 000000000000001000000000, multiplicand = 010000000000000000000000, s = 000000000000000000010000000000000000000000000000000
multiplier = 000000000000001000000000, multiplicand = 100000000000000000000000, s = 111111111111111111100000000000000000000000000000000
multiplier = 000000000000010000000000, multiplicand = 000000000000000000000001, s = 000000000000000000000000000000000000000010000000000
multiplier = 000000000000010000000000, multiplicand = 000000000000000000000010, s = 000000000000000000000000000000000000000100000000000
multiplier = 000000000000010000000000, multiplicand = 000000000000000000000100, s = 000000000000000000000000000000000000001000000000000
multiplier = 000000000000010000000000, multiplicand = 000000000000000000001000, s = 000000000000000000000000000000000000010000000000000
multiplier = 000000000000010000000000, multiplicand = 000000000000000000010000, s = 000000000000000000000000000000000000100000000000000
multiplier = 000000000000010000000000, multiplicand = 000000000000000000100000, s = 000000000000000000000000000000000001000000000000000
multiplier = 000000000000010000000000, multiplicand = 000000000000000001000000, s = 000000000000000000000000000000000010000000000000000
multiplier = 000000000000010000000000, multiplicand = 000000000000000010000000, s = 000000000000000000000000000000000100000000000000000
multiplier = 000000000000010000000000, multiplicand = 000000000000000100000000, s = 000000000000000000000000000000001000000000000000000
multiplier = 000000000000010000000000, multiplicand = 000000000000001000000000, s = 000000000000000000000000000000010000000000000000000
multiplier = 000000000000010000000000, multiplicand = 000000000000010000000000, s = 000000000000000000000000000000100000000000000000000
multiplier = 000000000000010000000000, multiplicand = 000000000000100000000000, s = 000000000000000000000000000001000000000000000000000
multiplier = 000000000000010000000000, multiplicand = 000000000001000000000000, s = 000000000000000000000000000010000000000000000000000
multiplier = 000000000000010000000000, multiplicand = 000000000010000000000000, s = 000000000000000000000000000100000000000000000000000
multiplier = 000000000000010000000000, multiplicand = 000000000100000000000000, s = 000000000000000000000000001000000000000000000000000
multiplier = 000000000000010000000000, multiplicand = 000000001000000000000000, s = 000000000000000000000000010000000000000000000000000
multiplier = 000000000000010000000000, multiplicand = 000000010000000000000000, s = 000000000000000000000000100000000000000000000000000
multiplier = 000000000000010000000000, multiplicand = 000000100000000000000000, s = 000000000000000000000001000000000000000000000000000
multiplier = 000000000000010000000000, multiplicand = 000001000000000000000000, s = 000000000000000000000010000000000000000000000000000
multiplier = 000000000000010000000000, multiplicand = 000010000000000000000000, s = 000000000000000000000100000000000000000000000000000
multiplier = 000000000000010000000000, multiplicand = 000100000000000000000000, s = 000000000000000000001000000000000000000000000000000
multiplier = 000000000000010000000000, multiplicand = 001000000000000000000000, s = 000000000000000000010000000000000000000000000000000
multiplier = 000000000000010000000000, multiplicand = 010000000000000000000000, s = 000000000000000000100000000000000000000000000000000
multiplier = 000000000000010000000000, multiplicand = 100000000000000000000000, s = 111111111111111111000000000000000000000000000000000
multiplier = 000000000000100000000000, multiplicand = 000000000000000000000001, s = 000000000000000000000000000000000000000100000000000
multiplier = 000000000000100000000000, multiplicand = 000000000000000000000010, s = 000000000000000000000000000000000000001000000000000
multiplier = 000000000000100000000000, multiplicand = 000000000000000000000100, s = 000000000000000000000000000000000000010000000000000
multiplier = 000000000000100000000000, multiplicand = 000000000000000000001000, s = 000000000000000000000000000000000000100000000000000
multiplier = 000000000000100000000000, multiplicand = 000000000000000000010000, s = 000000000000000000000000000000000001000000000000000
multiplier = 000000000000100000000000, multiplicand = 000000000000000000100000, s = 000000000000000000000000000000000010000000000000000
multiplier = 000000000000100000000000, multiplicand = 000000000000000001000000, s = 000000000000000000000000000000000100000000000000000
multiplier = 000000000000100000000000, multiplicand = 000000000000000010000000, s = 000000000000000000000000000000001000000000000000000
multiplier = 000000000000100000000000, multiplicand = 000000000000000100000000, s = 000000000000000000000000000000010000000000000000000
multiplier = 000000000000100000000000, multiplicand = 000000000000001000000000, s = 000000000000000000000000000000100000000000000000000
multiplier = 000000000000100000000000, multiplicand = 000000000000010000000000, s = 000000000000000000000000000001000000000000000000000
multiplier = 000000000000100000000000, multiplicand = 000000000000100000000000, s = 000000000000000000000000000010000000000000000000000
multiplier = 000000000000100000000000, multiplicand = 000000000001000000000000, s = 000000000000000000000000000100000000000000000000000
multiplier = 000000000000100000000000, multiplicand = 000000000010000000000000, s = 000000000000000000000000001000000000000000000000000
multiplier = 000000000000100000000000, multiplicand = 000000000100000000000000, s = 000000000000000000000000010000000000000000000000000
multiplier = 000000000000100000000000, multiplicand = 000000001000000000000000, s = 000000000000000000000000100000000000000000000000000
multiplier = 000000000000100000000000, multiplicand = 000000010000000000000000, s = 000000000000000000000001000000000000000000000000000
multiplier = 000000000000100000000000, multiplicand = 000000100000000000000000, s = 000000000000000000000010000000000000000000000000000
multiplier = 000000000000100000000000, multiplicand = 000001000000000000000000, s = 000000000000000000000100000000000000000000000000000
multiplier = 000000000000100000000000, multiplicand = 000010000000000000000000, s = 000000000000000000001000000000000000000000000000000
multiplier = 000000000000100000000000, multiplicand = 000100000000000000000000, s = 000000000000000000010000000000000000000000000000000
multiplier = 000000000000100000000000, multiplicand = 001000000000000000000000, s = 000000000000000000100000000000000000000000000000000
multiplier = 000000000000100000000000, multiplicand = 010000000000000000000000, s = 000000000000000001000000000000000000000000000000000
